{
    "cordova-plugin-camera": {
        "source": {
            "type": "registry",
            "id": "cordova-plugin-camera"
        },
        "is_top_level": true,
        "variables": {}
    },
    "cordova-plugin-file-transfer": {
        "source": {
            "type": "registry",
            "id": "cordova-plugin-file-transfer"
        },
        "is_top_level": true,
        "variables": {}
    },
    "com.mirasense.scanditsdk.plugin": {
        "source": {
            "type": "git",
            "url": "https://github.com/Scandit/BarcodeScannerPlugin.git",
            "subdir": "."
        },
        "is_top_level": true,
        "variables": {}
    }
}